module gitlab.com/rodrigoodhin/go-editorjs-parser

go 1.17

require (
	github.com/matryer/is v1.4.0
	github.com/stretchr/testify v1.7.0
	github.com/tdewolff/minify/v2 v2.9.22
)

require (
	github.com/davecgh/go-spew v1.1.0 // indirect
	github.com/pmezard/go-difflib v1.0.0 // indirect
	github.com/tdewolff/parse/v2 v2.5.21 // indirect
	gopkg.in/yaml.v3 v3.0.0-20200313102051-9f266ea9e77c // indirect
)
